<svg width="16" height="16" viewBox="0 0 16 16" fill="none" xmlns="http://www.w3.org/2000/svg">
<path d="M12.8378 6.00846C14.3036 7.21347 15.2539 8.9336 15.494 10.8168C15.5071 10.9262 15.4986 11.0372 15.4689 11.1433C15.4392 11.2494 15.3888 11.3487 15.3208 11.4353C15.2528 11.522 15.1683 11.5944 15.0723 11.6484C14.9763 11.7024 14.8706 11.737 14.7613 11.7501C14.6519 11.7633 14.5411 11.7547 14.435 11.725C14.329 11.6952 14.2298 11.6449 14.1432 11.5768C14.0566 11.5087 13.9843 11.4242 13.9303 11.3281C13.8763 11.232 13.8418 11.1262 13.8287 11.0168C13.6296 9.61155 12.9304 8.32546 11.8595 7.39498C10.7887 6.46449 9.41816 5.95214 8 5.95214C6.58184 5.95214 5.21135 6.46449 4.14049 7.39498C3.06962 8.32546 2.37038 9.61155 2.17131 11.0168C2.15819 11.1262 2.12366 11.232 2.06969 11.3281C2.01572 11.4242 1.94337 11.5087 1.85678 11.5768C1.77018 11.6449 1.67102 11.6952 1.56498 11.725C1.45893 11.7547 1.34807 11.7633 1.23872 11.7501C1.12938 11.737 1.02368 11.7024 0.92768 11.6484C0.831678 11.5944 0.747245 11.522 0.679203 11.4353C0.611161 11.3487 0.560842 11.2494 0.531119 11.1433C0.501396 11.0372 0.492852 10.9262 0.505974 10.8168C0.743981 8.93484 1.69113 7.21489 3.15386 6.00846L1.23872 4.07512C1.10231 3.91571 1.03103 3.71064 1.03912 3.50091C1.04722 3.29118 1.13409 3.09223 1.28239 2.94382C1.43068 2.79541 1.62947 2.70847 1.83903 2.70037C2.0486 2.69226 2.2535 2.7636 2.41279 2.90012L4.58605 5.06679C5.39358 4.65839 6.26793 4.3987 7.16733 4.30012V1.33346C7.16733 1.11244 7.25506 0.900481 7.41121 0.744202C7.56737 0.587921 7.77916 0.500124 8 0.500124C8.22084 0.500124 8.43263 0.587921 8.58879 0.744202C8.74494 0.900481 8.83267 1.11244 8.83267 1.33346V4.30012C9.73207 4.3987 10.6064 4.65839 11.4139 5.06679L13.5872 2.90012C13.7465 2.7636 13.9514 2.69226 14.161 2.70037C14.3705 2.70847 14.5693 2.79541 14.7176 2.94382C14.8659 3.09223 14.9528 3.29118 14.9609 3.50091C14.969 3.71064 14.8977 3.91571 14.7613 4.07512L12.8378 6.00846Z" fill="#203842"/>
<ellipse cx="7.99994" cy="11.7562" rx="3.74701" ry="3.75" fill="#203842"/>
</svg>
