<svg width="167" height="167" viewBox="0 0 167 167" fill="none" xmlns="http://www.w3.org/2000/svg">
<g clip-path="url(#clip0)">
<path d="M67.0623 57.861C71.801 57.861 75.6425 54.0196 75.6425 49.2809C75.6425 44.5422 71.801 40.7007 67.0623 40.7007C62.3236 40.7007 58.4822 44.5422 58.4822 49.2809C58.4822 54.0196 62.3236 57.861 67.0623 57.861Z" fill="#EFF3F9"/>
<path d="M67.0623 54.9127C70.1726 54.9127 72.694 52.3914 72.694 49.2811C72.694 46.1708 70.1726 43.6494 67.0623 43.6494C63.952 43.6494 61.4307 46.1708 61.4307 49.2811C61.4307 52.3914 63.952 54.9127 67.0623 54.9127Z" fill="#EFF3F9"/>
<path d="M63.9665 83.8961C53.7941 83.8961 47.7202 77.8222 47.7202 67.6498V44.0617C47.7202 33.8894 53.7941 27.8154 63.9665 27.8154H102.975C113.148 27.8154 119.222 33.8894 119.222 44.0617V67.6498C119.222 77.8222 113.148 83.8961 102.975 83.8961H63.9665ZM99.9089 40.6709C95.1702 40.6709 91.3287 44.5125 91.3287 49.2511C91.3287 53.9897 95.1702 57.8313 99.9089 57.8313C104.647 57.8313 108.489 53.9897 108.489 49.2511C108.473 44.5191 104.641 40.6872 99.9089 40.6709ZM67.0624 40.6709C62.3238 40.6709 58.4823 44.5125 58.4823 49.2511C58.4823 53.9897 62.3238 57.8313 67.0624 57.8313C71.8011 57.8313 75.6426 53.9897 75.6426 49.2511C75.6264 44.5191 71.7944 40.6872 67.0624 40.6709Z" fill="#EFF3F9"/>
<path d="M51.0815 156.606C53.8009 156.606 56.0055 154.402 56.0055 151.682C56.0055 148.963 53.8009 146.758 51.0815 146.758C48.362 146.758 46.1575 148.963 46.1575 151.682C46.1575 154.402 48.362 156.606 51.0815 156.606Z" fill="#EFF3F9"/>
<path d="M43.9167 66.3524C36.9958 64.2601 33.0817 56.9533 35.1744 50.0324C36.4422 45.8389 39.7236 42.5579 43.9167 41.2901L47.7203 40.1401V67.5318L43.9167 66.3524Z" fill="#EFF3F9"/>
<path d="M119.251 40.1401L123.055 41.2901C129.976 43.3824 133.89 50.6892 131.797 57.6101C130.529 61.8036 127.248 65.0845 123.055 66.3524L119.251 67.5023V40.1401Z" fill="#EFF3F9"/>
<path d="M99.909 57.861C104.648 57.861 108.489 54.0196 108.489 49.2809C108.489 44.5422 104.648 40.7007 99.909 40.7007C95.1703 40.7007 91.3289 44.5422 91.3289 49.2809C91.3289 54.0196 95.1703 57.861 99.909 57.861Z" fill="#EFF3F9"/>
<path d="M99.909 54.9127C103.019 54.9127 105.541 52.3914 105.541 49.2811C105.541 46.1708 103.019 43.6494 99.909 43.6494C96.7987 43.6494 94.2773 46.1708 94.2773 49.2811C94.2773 52.3914 96.7987 54.9127 99.909 54.9127Z" fill="#EFF3F9"/>
<path d="M83.4857 16.4342C87.1659 16.4342 90.1493 13.4508 90.1493 9.77057C90.1493 6.09034 87.1659 3.10693 83.4857 3.10693C79.8054 3.10693 76.822 6.09034 76.822 9.77057C76.822 13.4508 79.8054 16.4342 83.4857 16.4342Z" fill="#EFF3F9"/>
<path d="M47.8676 92.4766L47.6907 138.945H116.126H119.074V92.7419L47.8676 92.4766Z" fill="#EFF3F9"/>
<path d="M44.6243 164.154C37.7281 164.489 31.8658 159.171 31.5304 152.275C31.1954 145.378 36.5141 139.516 43.4103 139.181C43.8146 139.161 44.2197 139.161 44.624 139.181H122.347C129.243 138.845 135.105 144.164 135.441 151.06C135.776 157.957 130.457 163.819 123.561 164.154C123.156 164.174 122.751 164.174 122.347 164.154H44.6243ZM115.919 146.758C113.2 146.758 110.995 148.963 110.995 151.682C110.995 154.402 113.2 156.606 115.919 156.606C118.639 156.606 120.843 154.402 120.843 151.682C120.843 148.963 118.639 146.758 115.919 146.758ZM83.4857 146.758C80.7661 146.758 78.5617 148.963 78.5617 151.682C78.5617 154.402 80.7661 156.606 83.4857 156.606C86.2054 156.606 88.4097 154.402 88.4097 151.682C88.4097 148.963 86.2054 146.758 83.4857 146.758ZM51.0521 146.758C48.3325 146.758 46.1281 148.963 46.1281 151.682C46.1281 154.402 48.3325 156.606 51.0521 156.606C53.7717 156.606 55.9761 154.402 55.9761 151.682C55.9761 148.963 53.7717 146.758 51.0521 146.758Z" fill="#EFF3F9"/>
<path d="M115.89 156.606C118.609 156.606 120.814 154.402 120.814 151.682C120.814 148.963 118.609 146.758 115.89 146.758C113.17 146.758 110.966 148.963 110.966 151.682C110.966 154.402 113.17 156.606 115.89 156.606Z" fill="#EFF3F9"/>
<path d="M83.4855 156.606C86.205 156.606 88.4095 154.402 88.4095 151.682C88.4095 148.963 86.205 146.758 83.4855 146.758C80.7661 146.758 78.5615 148.963 78.5615 151.682C78.5615 154.402 80.7661 156.606 83.4855 156.606Z" fill="#EFF3F9"/>
<path d="M67.0624 60.8093C73.4293 60.8093 78.5911 55.6476 78.5911 49.2806C78.5911 42.9137 73.4293 37.752 67.0624 37.752C60.6954 37.752 55.5337 42.9137 55.5337 49.2806C55.5499 55.6409 60.7021 60.7931 67.0624 60.8093ZM67.0624 43.6195C70.1727 43.6195 72.694 46.1408 72.694 49.2512C72.694 52.3615 70.1727 54.8828 67.0624 54.8828C63.9521 54.8828 61.4307 52.3615 61.4307 49.2512C61.4307 46.1408 63.9521 43.6195 67.0624 43.6195Z" fill="#49799A"/>
<path d="M99.909 60.8093C106.276 60.8093 111.438 55.6476 111.438 49.2806C111.438 42.9137 106.276 37.752 99.909 37.752C93.5421 37.752 88.3804 42.9137 88.3804 49.2806C88.3966 55.6409 93.5487 60.7931 99.909 60.8093ZM99.909 43.6195C103.019 43.6195 105.541 46.1408 105.541 49.2512C105.541 52.3615 103.019 54.8828 99.909 54.8828C96.7987 54.8828 94.2774 52.3615 94.2774 49.2512C94.2774 46.1408 96.7987 43.6195 99.909 43.6195Z" fill="#49799A"/>
<path d="M44.8602 69.655C45.7742 82.2746 55.1505 86.8448 63.9665 86.8448H102.975C116.126 86.8448 121.404 78.2941 122.082 69.655C130.819 68.1004 136.643 59.7568 135.088 51.0193C133.86 44.1161 128.298 38.8062 121.345 37.8995C119.428 30.882 113.944 24.926 102.975 24.926H86.4342V18.7637C91.4868 17.1353 94.2629 11.7189 92.6345 6.66628C91.0062 1.61364 85.5898 -1.16239 80.5372 0.46593C75.4845 2.09425 72.7085 7.51029 74.3368 12.5633C75.2855 15.5074 77.5931 17.8146 80.5372 18.7637V24.6607H63.9665C56.212 24.6607 48.0151 28.2284 45.5383 37.6341C36.7404 38.8003 30.5536 46.8777 31.7198 55.6757C32.6408 62.6235 37.9581 68.173 44.8602 69.3896V69.655ZM122.2 44.1209C127.565 45.73 130.61 51.3845 129.001 56.7501C128.021 60.0167 125.466 62.5719 122.2 63.5516V44.1209ZM79.7411 9.91812C79.6596 7.8678 81.2559 6.13997 83.3058 6.05852C85.3561 5.97707 87.084 7.57332 87.1654 9.62327C87.2469 11.6732 85.6506 13.4014 83.6007 13.4829C83.5623 13.4843 83.524 13.4855 83.4857 13.4858C81.4848 13.488 79.8354 11.9168 79.7411 9.91812ZM50.6688 44.1209C50.6688 32.5332 59.013 30.8231 63.9665 30.8231H102.975C114.563 30.8231 116.273 39.1674 116.273 44.1209V67.709C116.273 72.6919 114.534 81.0067 102.975 81.0067H63.9665C58.9836 81.0067 50.6688 79.2671 50.6688 67.709V44.1209ZM44.7717 44.1209V63.5516C39.4062 61.9424 36.3611 56.2879 37.9703 50.9223C38.9499 47.6558 41.5052 45.1005 44.7717 44.1209Z" fill="#49799A"/>
<path d="M99.9089 68.4756H67.0625C65.4342 68.4756 64.114 69.7958 64.114 71.4241C64.114 73.0524 65.4342 74.3726 67.0625 74.3726H99.9089C101.537 74.3726 102.857 73.0524 102.857 71.4241C102.857 69.7958 101.537 68.4756 99.9089 68.4756Z" fill="#49799A"/>
<path d="M91.3286 112.349H80.9498L93.1861 102.354C94.44 101.303 94.6051 99.4354 93.5547 98.1815C92.5043 96.9277 90.6364 96.7626 89.3825 97.813L70.8069 113.116C69.5368 114.135 69.333 115.991 70.3521 117.261C70.9145 117.962 71.7659 118.368 72.6645 118.364H83.4855L70.7185 129.568C69.6662 130.811 69.821 132.672 71.0638 133.724C72.0792 134.583 73.5442 134.657 74.64 133.903L93.3041 117.509C94.5255 116.432 94.6423 114.569 93.5654 113.347C93.0066 112.714 92.2028 112.35 91.358 112.349H91.3286Z" fill="#EFF3F9"/>
<path d="M51.052 143.81C46.704 143.81 43.1794 147.335 43.1794 151.683C43.1794 156.031 46.704 159.555 51.052 159.555C55.3999 159.555 58.9245 156.031 58.9245 151.683C58.9245 147.335 55.3999 143.81 51.052 143.81ZM51.052 153.658C49.961 153.658 49.0765 152.774 49.0765 151.683C49.0765 150.592 49.961 149.707 51.052 149.707C52.1429 149.707 53.0275 150.592 53.0275 151.683C53.0275 152.774 52.1429 153.658 51.052 153.658Z" fill="#49799A"/>
<path d="M83.4858 143.81C79.1379 143.81 75.6133 147.335 75.6133 151.683C75.6133 156.031 79.1379 159.555 83.4858 159.555C87.8338 159.555 91.3583 156.031 91.3583 151.683C91.3583 147.335 87.8338 143.81 83.4858 143.81ZM83.4858 153.658C82.3949 153.658 81.5103 152.774 81.5103 151.683C81.5103 150.592 82.3949 149.707 83.4858 149.707C84.5768 149.707 85.4613 150.592 85.4613 151.683C85.4613 152.774 84.5768 153.658 83.4858 153.658Z" fill="#49799A"/>
<path d="M108.017 151.683C108.017 156.031 111.542 159.555 115.89 159.555C120.238 159.555 123.762 156.031 123.762 151.683C123.762 147.346 120.255 143.826 115.919 143.81C111.571 143.794 108.034 147.305 108.017 151.653C108.017 151.663 108.017 151.673 108.017 151.683ZM117.865 151.683C117.865 152.774 116.981 153.658 115.89 153.658C114.799 153.658 113.914 152.774 113.914 151.683C113.914 150.592 114.799 149.707 115.89 149.707C116.981 149.707 117.865 150.592 117.865 151.683Z" fill="#49799A"/>
<path d="M148.825 109.784L146.436 105.479C136.824 88.5843 117.541 89.5278 115.919 89.5278H51.0521C49.3124 89.5278 30.0587 88.4664 20.3875 105.391L18.0287 109.666C12.6488 110.617 8.74533 115.319 8.79988 120.782C8.79988 122.41 10.1201 123.731 11.7484 123.731C13.3767 123.731 14.6969 122.41 14.6969 120.782C14.6969 117.859 17.0664 115.489 19.9895 115.489C22.9126 115.489 25.2821 117.859 25.2821 120.782C25.2821 122.41 26.6023 123.731 28.2306 123.731C29.8589 123.731 31.1791 122.41 31.1791 120.782C31.1743 116.354 28.563 112.345 24.5154 110.551L25.6949 108.428C29.7789 101.503 36.8509 96.8718 44.8307 95.8966V136.114H44.6833C36.1584 136.487 29.55 143.7 29.9226 152.225C30.2724 160.227 36.6806 166.635 44.6833 166.985H122.347C130.872 167.358 138.085 160.749 138.457 152.225C138.83 143.7 132.221 136.487 123.697 136.114C123.247 136.095 122.797 136.095 122.347 136.114H122.2V95.8966C130.164 96.8718 137.229 101.476 141.336 108.369L142.545 110.551C138.474 112.327 135.837 116.34 135.822 120.782C135.822 122.41 137.142 123.731 138.771 123.731C140.399 123.731 141.719 122.41 141.719 120.782C141.719 117.859 144.089 115.489 147.012 115.489C149.935 115.489 152.304 117.859 152.304 120.782C152.304 122.41 153.624 123.731 155.253 123.731C156.881 123.731 158.201 122.41 158.201 120.782C158.186 115.316 154.219 110.664 148.825 109.784ZM50.8162 95.4249H116.303V136.114H50.8162V95.4249ZM122.347 142.129C127.615 141.836 132.123 145.869 132.416 151.137C132.709 156.405 128.676 160.913 123.408 161.206C123.054 161.226 122.7 161.226 122.347 161.206H44.6239C39.356 160.913 35.3229 156.405 35.6159 151.137C35.886 146.279 39.7652 142.4 44.6239 142.129H122.347Z" fill="#49799A"/>
</g>
<defs>
<clipPath id="clip0">
<rect width="167" height="167" fill="white"/>
</clipPath>
</defs>
</svg>
